{"products": [{"id": "g2a-steaam-key-001", "title": "Cyberpunk 2077 Steam Key - GLOBAL", "category": "Steam Keys - RPG", "price": 24.99, "currency": "USD", "minPieces": 1, "maxPieces": 50, "sellerReputation": "94%", "soldNumber": 1547, "stock": 25, "deliveryEstimates": "2-5 minutes", "guaranteeTiers": "14-day guarantee", "refillAvailable": true, "description": "Instant digital delivery. Latest version with all DLCs.", "url": "/marketplace/product/cyberpunk-2077-global", "metadata": {"sellerId": "g2a-seller-001", "platform": "Steam", "region": "Global", "preorder": false}}, {"id": "g2a-epic-key-002", "title": "Fortnite - 2800 V-Bucks Card", "category": "Game Cards - Battle Royale", "price": 19.99, "currency": "USD", "minPieces": 1, "maxPieces": 20, "sellerReputation": "4.7/5", "soldNumber": 892, "stock": 15, "deliveryEstimates": "Instant", "guaranteeTiers": "7-day guarantee", "refillAvailable": true, "description": "Official Epic Games Store code. Instant delivery.", "url": "/marketplace/product/fortnite-vbucks-2800", "metadata": {"sellerId": "g2a-seller-002", "platform": "Epic Games Store", "region": "Global", "preorder": false}}, {"id": "g2a-playstation-003", "title": "FIFA 24 PS5 Game", "category": "PlayStation - Sports", "price": 45.99, "currency": "EUR", "minPieces": 1, "maxPieces": 5, "sellerReputation": "89%", "soldNumber": 234, "stock": 3, "deliveryEstimates": "5-15 minutes", "guaranteeTiers": "30-day guarantee", "refillAvailable": false, "description": "Original sealed copy. EU region.", "url": "/marketplace/product/fifa24-ps5", "metadata": {"sellerId": "g2a-seller-003", "platform": "PlayStation 5", "region": "EU", "preorder": false}}, {"id": "g2a-xbox-004", "title": "Call of Duty: Modern Warfare III - Xbox Series", "category": "Xbox - Shooter", "price": 59.99, "currency": "GBP", "minPieces": 1, "maxPieces": 10, "sellerReputation": "4.3/5", "soldNumber": 678, "stock": 8, "deliveryEstimates": "10-30 minutes", "guaranteeTiers": "14-day guarantee", "refillAvailable": true, "description": "Digital download code. UK region.", "url": "/marketplace/product/cod-mw3-xbox", "metadata": {"sellerId": "g2a-seller-004", "platform": "Xbox Series X/S", "region": "UK", "preorder": false}}, {"id": "g2a-nintendo-005", "title": "Mario Kart 8 Deluxe - Nintendo Switch", "category": "Nintendo - Racing", "price": 42.5, "currency": "USD", "minPieces": 1, "maxPieces": 3, "sellerReputation": "96%", "soldNumber": 445, "stock": 2, "deliveryEstimates": "2-8 minutes", "guaranteeTiers": "7-day guarantee", "refillAvailable": false, "description": "Digital code. Works worldwide except Japan.", "url": "/marketplace/product/mario-kart-8-deluxe", "metadata": {"sellerId": "g2a-seller-005", "platform": "Nintendo Switch", "region": "Global (No JP)", "preorder": false}}], "pagination": {"currentPage": 1, "totalPages": 10, "totalItems": 47}}
